…
# What is the average daily activity pattern?

```r
activity.interval <- activity.data %>% group_by(interval) %>% summarise(mean_steps = mean(steps, na.rm = TRUE))
activity.interval
```

```
## # A tibble: 288 x 2
##    interval mean_steps
##       <int>      <dbl>
## 1         0  1.7169811
## 2         5  0.3396226
## 3        10  0.1320755
## 4        15  0.1509434
## 5        20  0.0754717
## 6        25  2.0943396
## 7        30  0.5283019
## 8        35  0.8679245
## 9        40  0.0000000
## 10       45  1.4716981
## # ... with 278 more rows
```
…
